{
    "$schema": "http://json-schema.org/draft-07/schema",
    "description": "Specification for subscriptions.json file.",
    "type": "object",
    "properties": {
        "subscriptions": {
            "type": "array",
            "items": {
                "type": "object",
                "properties": {
                    "name": {
                        "type": "string",
                        "description": "Name of the subscription."
                    },
                    "managementGroup": {
                        "type": "string",
                        "description": "Name of the management group."
                    }
                },
                "required": ["name", "managementGroup"]
            }
        }
    },
    "required": ["subscriptions"]
}
